<?xml version="1.0" encoding="UTF-8" standalone="no"?>
<!-- Created with Inkscape (http://www.inkscape.org/) -->

<svg
   width="3000"
   height="4000"
   viewBox="0 0 793.75 1058.3333"
   version="1.1"
   id="svg5"
   inkscape:version="1.2.1 (9c6d41e410, 2022-07-14)"
   sodipodi:docname="doc_small.svg"
   xmlns:inkscape="http://www.inkscape.org/namespaces/inkscape"
   xmlns:sodipodi="http://sodipodi.sourceforge.net/DTD/sodipodi-0.dtd"
   xmlns="http://www.w3.org/2000/svg"
   xmlns:svg="http://www.w3.org/2000/svg">
  <sodipodi:namedview
     id="namedview7"
     pagecolor="#000000"
     bordercolor="#666666"
     borderopacity="1.0"
     inkscape:showpageshadow="2"
     inkscape:pageopacity="0.0"
     inkscape:pagecheckerboard="0"
     inkscape:deskcolor="#d1d1d1"
     inkscape:document-units="mm"
     showgrid="false"
     inkscape:zoom="0.071736846"
     inkscape:cx="167.27805"
     inkscape:cy="334.55611"
     inkscape:window-width="1920"
     inkscape:window-height="1051"
     inkscape:window-x="0"
     inkscape:window-y="0"
     inkscape:window-maximized="1"
     inkscape:current-layer="layer1"
     showguides="false" />
  <defs
     id="defs2" />
  <g
     inkscape:label="Ebene 1"
     inkscape:groupmode="layer"
     id="layer1">
    <rect
       style="fill:#ff0000;fill-opacity:1;stroke:#ff0000;stroke-width:92.8229;stroke-linecap:round;stroke-linejoin:round;stroke-miterlimit:0;stroke-dasharray:none;stroke-opacity:1;paint-order:stroke fill markers"
       id="rect790"
       width="700.92712"
       height="965.51038"
       x="46.411449"
       y="46.411449"
       rx="91.823669"
       ry="101.97951" />
    <path
       d="m 148.86545,393.36884 h 496.0195"
       stroke="#222222"
       stroke-width="38.5746"
       stroke-linecap="round"
       id="path6"
       style="stroke:#ffffff;stroke-width:67.8989;stroke-dasharray:none;stroke-opacity:1" />
    <path
       d="m 148.86545,529.34684 h 496.0195"
       stroke="#222222"
       stroke-width="38.5746"
       stroke-linecap="round"
       id="path6-3"
       style="stroke:#ffffff;stroke-width:67.8989;stroke-dasharray:none;stroke-opacity:1" />
    <path
       d="m 148.86545,664.71717 h 496.0195"
       stroke="#222222"
       stroke-width="38.5746"
       stroke-linecap="round"
       id="path6-3-6"
       style="stroke:#ffffff;stroke-width:67.8989;stroke-dasharray:none;stroke-opacity:1" />
  </g>
</svg>
